Analytics_201_S5
…
o <- filter(data, crime_code == 'other')
o_counts <- o %>% group_by(statute_description) %>% count() %>% arrange(desc(n))

m <- filter(data, crime_code == 'MCC')
m_counts <- m %>% group_by(statute_description) %>% count() %>% arrange(desc(n))

t <- filter(data, crime_code == 'TRF')
t_counts <- t %>% group_by(statute_description) %>% count() %>% arrange(desc(n))

d <- filter(data, crime_code == 'drug')
d_counts <- d %>% group_by(statute_description) %>% count() %>% arrange(desc(n))

m_counts

## # A tibble: 52 x 2
## # Groups:   statute_description [52]
##    statute_description                                    n
##    <fct>                                              <int>
##  1 SOLICITING UNLAWFUL BUSINESS                         203
##  2 PANHANDLE PROHIBIT MANNER                             62
##  3 CTA - UNSAFE COND/CROSS BETWEEN CARS (98-126-1.6A)    33
##  4 FAILURE TO APPEAR IN COURT                            31
##  5 CERTAIN TRANSACTIONS PROHIBITED                       26
##  6 CTA - ALCOHOL/DRUGS ON (98-126-1.4)                   16
##  7 PANHANDLE PROHIBIT LOCATIONS                          16
##  8 CTA - SELLING ON PROPERTY (98-126-1.1)                15
##  9 CTA - SOLICITING/BEGGING ON (98-126-1.2)              14
## 10 CTA - URINATING ON PROPERTY (98-126-1.7B)             11
## # ... with 42 more rows
…
