Analytics 201: Session 3
…
library(ggplot2)

Plotting

One key tool in analytics is data visualization. Indeed, a picture speaks a thousand words. We will first investigate some basic plots that base R (i.e.no packages) offers, then transition into using a powerful package called ggplot2

Data

We will be using a dataset called mpg, which is self-loaded by importing ggplot (make sure you call library(ggplot2) first). You can find more about the dataset here.

print(mpg)

## # A tibble: 234 x 11
##    manufacturer model    displ  year   cyl trans   drv     cty   hwy fl    class
##    <chr>        <chr>    <dbl> <int> <int> <chr>   <chr> <int> <int> <chr> <chr>
##  1 audi         a4         1.8  1999     4 auto(l f        18    29 p     comp
##  2 audi         a4         1.8  1999     4 manual f        21    29 p     comp
##  3 audi         a4         2    2008     4 manual f        20    31 p     comp
##  4 audi         a4         2    2008     4 auto(a f        21    30 p     comp
##  5 audi         a4         2.8  1999     6 auto(l f        16    26 p     comp
##  6 audi         a4         2.8  1999     6 manual f        18    26 p     comp
##  7 audi         a4         3.1  2008     6 auto(a f        18    27 p     comp
##  8 audi         a4 quat   1.8  1999     4 manual 4        18    26 p     comp
##  9 audi         a4 quat   1.8  1999     4 auto(l 4        16    25 p     comp
## 10 audi         a4 quat   2    2008     4 manual 4        20    28 p     comp
## #  with 224 more rows
…
Aesthetics

# Import libraries
library(ggplot2)
mpg # included in ggplot2

## # A tibble: 234 x 11
##    manufacturer model    displ  year   cyl trans   drv     cty   hwy fl    class
##    <chr>        <chr>    <dbl> <int> <int> <chr>   <chr> <int> <int> <chr> <chr>
##  1 audi         a4         1.8  1999     4 auto(l f        18    29 p     comp
##  2 audi         a4         1.8  1999     4 manual f        21    29 p     comp
##  3 audi         a4         2    2008     4 manual f        20    31 p     comp
##  4 audi         a4         2    2008     4 auto(a f        21    30 p     comp
##  5 audi         a4         2.8  1999     6 auto(l f        16    26 p     comp
##  6 audi         a4         2.8  1999     6 manual f        18    26 p     comp
##  7 audi         a4         3.1  2008     6 auto(a f        18    27 p     comp
##  8 audi         a4 quat   1.8  1999     4 manual 4        18    26 p     comp
##  9 audi         a4 quat   1.8  1999     4 auto(l 4        16    25 p     comp
## 10 audi         a4 quat   2    2008     4 manual 4        20    28 p     comp
## #  with 224 more rows
…
